22-isaac.utf8.md
…
# get avg ops
summarize(mlb, Average = mean(OPS,na.rm=T))

##     Average
## 1 0.7330384

# get avg ops by year
group_by(mlb, yearID)%>%
summarize(Average = mean(OPS, na.rm=T))

## # A tibble: 43 x 2
##    yearID Average
##     <int>   <dbl>
##  1   1976   0.681
##  2   1977   0.730
##  3   1978   0.702
##  4   1979   0.727
##  5   1980   0.714
##  6   1981   0.688
##  7   1982   0.712
##  8   1983   0.714
##  9   1984   0.707
## 10   1985   0.714
## #  with 33 more rows
…
